Data_desc
…
#df[duplicated(df$RADICADO), ] estos son los radicados repetidos

Graficas y relacin de variables:

Inicialente se consideran las posibles relaciones entre ciertas Comunas y la frecuencia, gravedad y tipo de accidentes.

###Gravedad y comunas

comunas <- count(df2, COMUNA) #EN su mayoria las comunas con menos de 4 accidentes son tabulaciones erroneas d eun barrio
head(comunas[order(-comunas$n),],25)

## # A tibble: 25 x 2
##    COMUNA               n
##    <fct>            <int>
##  1 La Candelaria    43715
##  2 Laureles Estadio 23850
##  3 Castilla         21208
##  4 El Poblado       17148
##  5 Guayabal         15217
##  6 Belen            13933
##  7 Robledo          13910
##  8 Aranjuez         12425
##  9 Buenos Aires      7791
## 10 La America        6891
## # ... with 15 more rows
…
