Reporte Tecnico
…
Dado que el presente trabajo se centrara slo en las zonas urbanas de Medelln se procede trabaja solo con los registros cuyo GEOCOD corresponda a ZONA RURAL.

Se considera que CON MUERTO es equivalente a MUERTO para la columna GRAVEDAD: Se considera que Caida Ocupante es equivalente a Caida de Ocupante en la columna CLASE

Se encuentra que hay un numero de obervaciones con el Radicado repetido. Tras detallada inspeccin se determina que no son duplicados.

##NA inspection

## [1] "El numero de datos con NA es: 1045"

##ANALISIS

## Joining, by = "PERIODO"

## # A tibble: 30 x 4
## # Groups:   CLASE [6]
##    CLASE          PERIODO frecuencia frec.abs
##    <chr>            <int>      <int>    <dbl>
##  1 Atropello         2014       4630    0.114
##  2 Cada Ocupante    2014       3966    0.098
##  3 Choque            2014      26664    0.658
##  4 Incendio          2014          8    0    
##  5 Otro              2014       4323    0.107
##  6 Volcamiento       2014        918    0.023
##  7 Atropello         2015       4322    0.106
##  8 Cada Ocupante    2015       3515    0.086
##  9 Choque            2015      27659    0.676
## 10 Incendio          2015          1    0    
## # ... with 20 more rows
…
